<?xml version="1.0" encoding="utf-8"?>
<!-- Generator: Adobe Illustrator 21.0.0, SVG Export Plug-In . SVG Version: 6.00 Build 0)  -->
<svg version="1.1" id="Layer_1" xmlns="http://www.w3.org/2000/svg" xmlns:xlink="http://www.w3.org/1999/xlink" x="0px" y="0px"
	 viewBox="0 0 150 150" style="enable-background:new 0 0 150 150;" xml:space="preserve">
<style type="text/css">
	.st0{fill:#48B3E1;}
	.st1{fill:none;stroke:#231F20;stroke-width:4;stroke-miterlimit:10;}
	.st2{fill:#92278F;}
	.st3{fill:none;stroke:#92278F;stroke-width:3;stroke-miterlimit:10;}
	.st4{fill:none;stroke:#231F20;stroke-width:2;stroke-miterlimit:10;}
	.st5{fill:none;stroke:#92278F;stroke-width:2;stroke-miterlimit:10;}
</style>
<rect x="3.4" y="40.6" class="st0" width="144.2" height="6"/>
<path class="st0" d="M136.1,81.6H13.5v-5.9c0-3.1,2.5-5.6,5.6-5.6H131c2.8,0,5.1,2.3,5.1,5.1V81.6z"/>
<path class="st1" d="M143.2,81.6H6.7c-2.5,0-4.5-2-4.5-4.5V44.3c0-2.5,2-4.5,4.5-4.5h136.5c2.5,0,4.5,2,4.5,4.5v32.8
	C147.7,79.6,145.7,81.6,143.2,81.6z"/>
<circle class="st2" cx="115.1" cy="54.6" r="1.7"/>
<circle class="st2" cx="123.4" cy="54.6" r="1.7"/>
<circle class="st3" cx="134.8" cy="54.6" r="3.1"/>
<path class="st4" d="M136.1,81.6H13.5v-5.7c0-3.2,2.6-5.8,5.8-5.8h111c3.3,0,5.9,2.6,5.9,5.9V81.6z"/>
<line class="st4" x1="13.9" y1="75.8" x2="136" y2="75.8"/>
<g>
	<path class="st5" d="M111.1,87.1c0,12.5,9.1,22.6,20.5,22.6"/>
	<circle class="st2" cx="111.1" cy="87.1" r="0.7"/>
	<circle class="st2" cx="131.6" cy="109.7" r="0.7"/>
</g>
<g>
	<path class="st5" d="M38,87.1c0,12.5-9.1,22.6-20.5,22.6"/>
	<circle class="st2" cx="38" cy="87.1" r="0.7"/>
	<circle class="st2" cx="17.6" cy="109.7" r="0.7"/>
</g>
<g>
	<path class="st5" d="M63,87.5c0.8,10.3-2.5,17.7-13.5,23.4"/>
	<ellipse transform="matrix(0.9555 -0.295 0.295 0.9555 -23.0241 22.472)" class="st2" cx="63" cy="87.5" rx="0.7" ry="0.6"/>
	<ellipse transform="matrix(0.9555 -0.295 0.295 0.9555 -30.5198 19.5349)" class="st2" cx="49.5" cy="110.9" rx="0.7" ry="0.6"/>
</g>
<g>
	<path class="st5" d="M86.4,87.5c-0.8,10.3,2.5,17.7,13.5,23.4"/>
	<ellipse transform="matrix(0.295 -0.9555 0.9555 0.295 -22.7064 144.3122)" class="st2" cx="86.4" cy="87.5" rx="0.6" ry="0.7"/>
	<ellipse transform="matrix(0.295 -0.9555 0.9555 0.295 -35.535 173.6724)" class="st2" cx="99.9" cy="110.9" rx="0.6" ry="0.7"/>
</g>
<circle class="st2" cx="86.4" cy="87.5" r="1"/>
<circle class="st2" cx="99.9" cy="110.9" r="1"/>
<circle class="st2" cx="63" cy="87.5" r="1"/>
<circle class="st2" cx="49.5" cy="110.9" r="1"/>
<circle class="st2" cx="17.6" cy="109.7" r="1"/>
<circle class="st2" cx="38" cy="87.1" r="1"/>
<circle class="st2" cx="111.1" cy="87.1" r="1"/>
<circle class="st2" cx="131.6" cy="109.7" r="1"/>
</svg>
